<svg xmlns="http://www.w3.org/2000/svg" viewBox="1893.958 240.84 40.18 40.18">
  <defs>
    <style>
      .cls-1 {
        fill: #fff;
      }
    </style>
  </defs>
  <g id="monetary-unit-current-use" transform="translate(1893.954 240.84)">
    <path id="Path_2438" data-name="Path 2438" class="cls-1" d="M39.92.262a.89.89,0,0,0-1.26,0L32.124,6.8A18.054,18.054,0,0,0,7.936,6.67L1.529.267A.89.89,0,0,0,.268,1.525l6.4,6.393a18.136,18.136,0,0,0-.127,24.466L.266,38.658A.891.891,0,0,0,.9,40.178a.9.9,0,0,0,.631-.262l6.27-6.27a18.048,18.048,0,0,0,24.466-.127l6.4,6.4a.893.893,0,0,0,.631.262.91.91,0,0,0,.631-.26.893.893,0,0,0,0-1.263l-6.41-6.413A18.046,18.046,0,0,0,33.385,8.06L39.92,1.522A.894.894,0,0,0,39.92.262Zm-8.4,31.523A16.353,16.353,0,0,1,8.4,8.658,16.353,16.353,0,1,1,31.524,31.784Z" transform="translate(0 0)"/>
    <circle id="Ellipse_65" data-name="Ellipse 65" class="cls-1" cx="8.5" cy="8.5" r="8.5" transform="translate(11.046 11.16)"/>
  </g>
</svg>
