<svg xmlns="http://www.w3.org/2000/svg" xmlns:xlink="http://www.w3.org/1999/xlink" width="56" height="56" viewBox="452.5 349.5 83 83">
  <defs>
    <style>
      .cls-1 {
        stroke: #003993;
        stroke-width: 3px;
        fill: url(#radial-gradient);
      }

      .cls-2 {
        fill: #fff;
      }

      .cls-3 {
        filter: url(#Path_825);
      }

      .cls-4 {
        filter: url(#Path_824);
      }

      .cls-5 {
        filter: url(#Path_823);
      }

      .cls-6 {
        filter: url(#Path_822);
      }

      .cls-7 {
        filter: url(#Path_821);
      }

      .cls-8 {
        filter: url(#Path_820);
      }

      .cls-9 {
        filter: url(#Ellipse_27);
      }
    </style>
    <radialGradient id="radial-gradient" cx="28.269" cy="13.462" r="36.651" gradientUnits="userSpaceOnUse">
      <stop offset="0" stop-color="#0093ff"/>
      <stop offset="1" stop-color="#003fb7"/>
    </radialGradient>
    <filter id="Ellipse_27" x="452.5" y="349.5" width="83" height="83" filterUnits="userSpaceOnUse">
      <feOffset dy="8" input="SourceAlpha"/>
      <feGaussianBlur stdDeviation="4" result="blur"/>
      <feFlood flood-opacity="0.161"/>
      <feComposite operator="in" in2="blur"/>
      <feComposite in="SourceGraphic"/>
    </filter>
    <filter id="Path_820" x="492.722" y="373.041" width="21.604" height="21.911" filterUnits="userSpaceOnUse">
      <feOffset dy="3" input="SourceAlpha"/>
      <feGaussianBlur stdDeviation="3" result="blur-2"/>
      <feFlood flood-opacity="0.4"/>
      <feComposite operator="in" in2="blur-2"/>
      <feComposite in="SourceGraphic"/>
    </filter>
    <filter id="Path_821" x="489.611" y="371.49" width="20.589" height="19.931" filterUnits="userSpaceOnUse">
      <feOffset dy="3" input="SourceAlpha"/>
      <feGaussianBlur stdDeviation="3" result="blur-3"/>
      <feFlood flood-opacity="0.4"/>
      <feComposite operator="in" in2="blur-3"/>
      <feComposite in="SourceGraphic"/>
    </filter>
    <filter id="Path_822" x="464.695" y="364.604" width="53.376" height="40.432" filterUnits="userSpaceOnUse">
      <feOffset dy="3" input="SourceAlpha"/>
      <feGaussianBlur stdDeviation="3" result="blur-4"/>
      <feFlood flood-opacity="0.4"/>
      <feComposite operator="in" in2="blur-4"/>
      <feComposite in="SourceGraphic"/>
    </filter>
    <filter id="Path_823" x="473.126" y="385.173" width="50.179" height="22.233" filterUnits="userSpaceOnUse">
      <feOffset dy="3" input="SourceAlpha"/>
      <feGaussianBlur stdDeviation="3" result="blur-5"/>
      <feFlood flood-opacity="0.4"/>
      <feComposite operator="in" in2="blur-5"/>
      <feComposite in="SourceGraphic"/>
    </filter>
    <filter id="Path_824" x="474.807" y="364.628" width="40.165" height="21.317" filterUnits="userSpaceOnUse">
      <feOffset dy="3" input="SourceAlpha"/>
      <feGaussianBlur stdDeviation="3" result="blur-6"/>
      <feFlood flood-opacity="0.4"/>
      <feComposite operator="in" in2="blur-6"/>
      <feComposite in="SourceGraphic"/>
    </filter>
    <filter id="Path_825" x="497.862" y="364.628" width="21.155" height="19.618" filterUnits="userSpaceOnUse">
      <feOffset dy="3" input="SourceAlpha"/>
      <feGaussianBlur stdDeviation="3" result="blur-7"/>
      <feFlood flood-opacity="0.4"/>
      <feComposite operator="in" in2="blur-7"/>
      <feComposite in="SourceGraphic"/>
    </filter>
  </defs>
  <g id="Button_Open_Menu" data-name="Button Open Menu" transform="translate(466 355)">
    <g class="cls-9" transform="matrix(1, 0, 0, 1, -466, -355)">
      <circle id="Ellipse_27-2" data-name="Ellipse 27" class="cls-1" cx="28" cy="28" r="28" transform="translate(466 355)"/>
    </g>
    <g id="helicopter" transform="translate(7.695 -82.1)">
      <g class="cls-8" transform="matrix(1, 0, 0, 1, -473.7, -272.9)">
        <path id="Path_820-2" data-name="Path 820" class="cls-2" d="M349.948,204.691a9.1,9.1,0,0,0-2.178-2.516.809.809,0,0,0-1.01,1.264,7.485,7.485,0,0,1,1.792,2.07.809.809,0,0,0,1.4-.818Z" transform="translate(155.27 177.04)"/>
      </g>
      <g class="cls-7" transform="matrix(1, 0, 0, 1, -473.7, -272.9)">
        <path id="Path_821-2" data-name="Path 821" class="cls-2" d="M310.071,183.191a9.07,9.07,0,0,0-1.066-.344.809.809,0,1,0-.4,1.568,7.435,7.435,0,0,1,.875.282.809.809,0,0,0,.591-1.506Z" transform="translate(190.61 194.67)"/>
      </g>
      <g class="cls-6" transform="matrix(1, 0, 0, 1, -473.7, -272.9)">
        <path id="Path_822-2" data-name="Path 822" class="cls-2" d="M11.672,109.933l2.866,5.1a4.352,4.352,0,0,0,3.79,2.217h.047l-1.507,1.507a.809.809,0,1,0,1.144,1.144l2.651-2.651H31.318l-1.507,1.507a.809.809,0,1,0,1.144,1.144l2.651-2.651h.961a.809.809,0,0,0,.809-.809v-2.824a11.732,11.732,0,0,0-.148-1.855h0A11.621,11.621,0,0,0,23.756,102H7.2v-.747A3.549,3.549,0,0,0,3.652,97.7H.809A.809.809,0,0,0,0,98.513v6.222a.809.809,0,0,0,.631.789l7.344,1.655A5.679,5.679,0,0,1,11.672,109.933Zm12.4-6.315a9.946,9.946,0,0,1,9.359,7.46H24.075Zm-22.458.47V99.322H3.652a1.929,1.929,0,0,1,1.927,1.927V102.8a.809.809,0,0,0,.809.809h16.07v8.274a.809.809,0,0,0,.809.809H33.716c.028.306.042.613.042.918v2.015H18.327a2.733,2.733,0,0,1-2.379-1.392l-2.866-5.1A7.3,7.3,0,0,0,8.331,105.6Z" transform="translate(473.7 272.9)"/>
      </g>
      <g class="cls-5" transform="matrix(1, 0, 0, 1, -473.7, -272.9)">
        <path id="Path_823-2" data-name="Path 823" class="cls-2" d="M136.158,352.207a.809.809,0,0,0-1.144,0l-.374.374a6.8,6.8,0,0,1-4.839,2H105.025a.809.809,0,0,0,0,1.618H129.8a8.4,8.4,0,0,0,5.983-2.478l.374-.374A.809.809,0,0,0,136.158,352.207Z" transform="translate(377.91 39.2)"/>
      </g>
      <g class="cls-4" transform="matrix(1, 0, 0, 1, -473.7, -272.9)">
        <path id="Path_824-2" data-name="Path 824" class="cls-2" d="M125.809,99.617h11.568v.89a.809.809,0,1,0,1.618,0v-.89h7.361a.809.809,0,1,0,0-1.618H125.809a.809.809,0,1,0,0,1.618Z" transform="translate(358.81 272.63)"/>
      </g>
      <g class="cls-3" transform="matrix(1, 0, 0, 1, -473.7, -272.9)">
        <path id="Path_825-2" data-name="Path 825" class="cls-2" d="M410.809,99.617h1.537a.809.809,0,1,0,0-1.618h-1.537a.809.809,0,1,0,0,1.618Z" transform="translate(96.86 272.63)"/>
      </g>
    </g>
  </g>
</svg>
