<svg xmlns="http://www.w3.org/2000/svg" viewBox="1651.5 76 61 10">
  <defs>
    <style>
      .cls-1 {
        opacity: 0.499;
      }

      .cls-2 {
        fill: none;
        stroke: #fff;
        stroke-width: 3px;
        opacity: 0.499;
      }
    </style>
  </defs>
  <g id="Group_136" data-name="Group 136" class="cls-1" transform="translate(1635.517 35.681)">
    <line id="Line_23" data-name="Line 23" class="cls-2" x2="61" transform="translate(15.983 41.819)"/>
    <line id="Line_24" data-name="Line 24" class="cls-2" x2="48" transform="translate(22.983 48.819)"/>
  </g>
</svg>
