<svg xmlns="http://www.w3.org/2000/svg" width="31" height="31" viewBox="1200.284 3117.659 31.481 31.481">
  <defs>
    <style>
      .cls-1 {
        fill: #ff4e00;
      }
    </style>
  </defs>
  <path id="Union_27" data-name="Union 27" class="cls-1" d="M15.741,24.392,8.651,31.481,0,22.83l7.089-7.089L0,8.651,8.651,0l7.089,7.089L22.83,0l8.651,8.651-7.089,7.089,7.089,7.089L22.83,31.481Z" transform="translate(1200.284 3117.659)"/>
</svg>
