<svg xmlns="http://www.w3.org/2000/svg" width="19" height="24" viewBox="1227.279 -186 18.938 24.104">
  <defs>
    <style>
      .cls-1 {
        fill: #fff;
      }
    </style>
  </defs>
  <g id="jogging" transform="translate(1195.698 -186)">
    <path id="Path_1715" data-name="Path 1715" class="cls-1" d="M49.432,11.393a8.485,8.485,0,0,1-.977.057,8.342,8.342,0,0,1-4.48-1.3L42.95,14.241a1.845,1.845,0,0,1-.123.34,13.218,13.218,0,0,1,4.983,8.067,1.227,1.227,0,1,1-2.411.458,10.773,10.773,0,0,0-4.138-6.632l-.009.012a10.562,10.562,0,0,1-8.367,4.146H32.8a1.247,1.247,0,0,1,.01-2.493h.011c.023,0,.046.02.068.02A8.087,8.087,0,0,0,39.3,14.989l.248-.321a1.827,1.827,0,0,1-.169-1.324l1.053-4.2A9.429,9.429,0,0,0,36.473,12a1.227,1.227,0,1,1-1.905-1.546,11.888,11.888,0,0,1,6.379-4.035l1.3-.317.016,0,.07-.013.053-.009.056,0,.067,0h.042c.026,0,.052,0,.078,0l.036,0c.027,0,.054.006.081.01l.041.009c.024.005.049.01.073.017l.053.017.058.019.061.026.047.021c.02.01.039.021.058.032l.047.027.049.033.052.037.038.031c.019.016.038.032.057.05l.011.01.942.912a5.914,5.914,0,0,0,4.815,1.633,1.227,1.227,0,0,1,.283,2.438ZM43.25,5.356a2.678,2.678,0,1,0-2.678-2.678A2.678,2.678,0,0,0,43.25,5.356Z" transform="translate(0)"/>
  </g>
</svg>
