<svg xmlns="http://www.w3.org/2000/svg" xmlns:xlink="http://www.w3.org/1999/xlink" width="45" height="45" viewBox="736.607 1090.713 72 72">
  <defs>
    <style>
      .cls-1 {
        stroke: #ffce00;
        stroke-width: 3px;
        fill: url(#radial-gradient);
      }

      .cls-2 {
        fill: #fff;
      }

      .cls-3 {
        filter: url(#Path_1384);
      }

      .cls-4 {
        filter: url(#Path_1383);
      }

      .cls-5 {
        filter: url(#Path_1382);
      }

      .cls-6 {
        filter: url(#Path_1381);
      }

      .cls-7 {
        filter: url(#Path_1380);
      }

      .cls-8 {
        filter: url(#Path_1379);
      }

      .cls-9 {
        filter: url(#Path_1378);
      }

      .cls-10 {
        filter: url(#Path_1377);
      }

      .cls-11 {
        filter: url(#Path_1376);
      }

      .cls-12 {
        filter: url(#Path_1375);
      }

      .cls-13 {
        filter: url(#Path_1374);
      }

      .cls-14 {
        filter: url(#Path_1373);
      }

      .cls-15 {
        filter: url(#Path_1372);
      }

      .cls-16 {
        filter: url(#Path_1371);
      }

      .cls-17 {
        filter: url(#Path_1370);
      }

      .cls-18 {
        filter: url(#Path_1369);
      }

      .cls-19 {
        filter: url(#Path_1368);
      }

      .cls-20 {
        filter: url(#Path_1367);
      }

      .cls-21 {
        filter: url(#Path_1366);
      }

      .cls-22 {
        filter: url(#Path_1365);
      }

      .cls-23 {
        filter: url(#Path_1364);
      }

      .cls-24 {
        filter: url(#Path_1363);
      }

      .cls-25 {
        filter: url(#Path_1362);
      }

      .cls-26 {
        filter: url(#Path_1361);
      }

      .cls-27 {
        filter: url(#Path_1360);
      }

      .cls-28 {
        filter: url(#Path_1359);
      }

      .cls-29 {
        filter: url(#Path_1358);
      }

      .cls-30 {
        filter: url(#Path_1357);
      }

      .cls-31 {
        filter: url(#Path_1356);
      }

      .cls-32 {
        filter: url(#Path_1355);
      }

      .cls-33 {
        filter: url(#Ellipse_37);
      }
    </style>
    <radialGradient id="radial-gradient" cx="22.716" cy="10.817" r="29.452" gradientUnits="userSpaceOnUse">
      <stop offset="0" stop-color="#ffce00"/>
      <stop offset="1" stop-color="#ff9300"/>
    </radialGradient>
    <filter id="Ellipse_37" x="736.607" y="1090.713" width="72" height="72" filterUnits="userSpaceOnUse">
      <feOffset dy="8" input="SourceAlpha"/>
      <feGaussianBlur stdDeviation="4" result="blur"/>
      <feFlood flood-opacity="0.161"/>
      <feComposite operator="in" in2="blur"/>
      <feComposite in="SourceGraphic"/>
    </filter>
    <filter id="Path_1355" x="753.351" y="1099" width="39.276" height="41.377" filterUnits="userSpaceOnUse">
      <feOffset dy="3" input="SourceAlpha"/>
      <feGaussianBlur stdDeviation="3" result="blur-2"/>
      <feFlood flood-opacity="0.4"/>
      <feComposite operator="in" in2="blur-2"/>
      <feComposite in="SourceGraphic"/>
    </filter>
    <filter id="Path_1356" x="763.857" y="1112.659" width="18.788" height="26.143" filterUnits="userSpaceOnUse">
      <feOffset dy="3" input="SourceAlpha"/>
      <feGaussianBlur stdDeviation="3" result="blur-3"/>
      <feFlood flood-opacity="0.4"/>
      <feComposite operator="in" in2="blur-3"/>
      <feComposite in="SourceGraphic"/>
    </filter>
    <filter id="Path_1357" x="765.434" y="1112.659" width="18.788" height="26.143" filterUnits="userSpaceOnUse">
      <feOffset dy="3" input="SourceAlpha"/>
      <feGaussianBlur stdDeviation="3" result="blur-4"/>
      <feFlood flood-opacity="0.4"/>
      <feComposite operator="in" in2="blur-4"/>
      <feComposite in="SourceGraphic"/>
    </filter>
    <filter id="Path_1358" x="767.01" y="1112.659" width="18.788" height="26.143" filterUnits="userSpaceOnUse">
      <feOffset dy="3" input="SourceAlpha"/>
      <feGaussianBlur stdDeviation="3" result="blur-5"/>
      <feFlood flood-opacity="0.4"/>
      <feComposite operator="in" in2="blur-5"/>
      <feComposite in="SourceGraphic"/>
    </filter>
    <filter id="Path_1359" x="767.535" y="1102.677" width="18.788" height="19.313" filterUnits="userSpaceOnUse">
      <feOffset dy="3" input="SourceAlpha"/>
      <feGaussianBlur stdDeviation="3" result="blur-6"/>
      <feFlood flood-opacity="0.4"/>
      <feComposite operator="in" in2="blur-6"/>
      <feComposite in="SourceGraphic"/>
    </filter>
    <filter id="Path_1360" x="769.111" y="1102.677" width="18.788" height="19.313" filterUnits="userSpaceOnUse">
      <feOffset dy="3" input="SourceAlpha"/>
      <feGaussianBlur stdDeviation="3" result="blur-7"/>
      <feFlood flood-opacity="0.4"/>
      <feComposite operator="in" in2="blur-7"/>
      <feComposite in="SourceGraphic"/>
    </filter>
    <filter id="Path_1361" x="770.687" y="1102.677" width="18.788" height="19.313" filterUnits="userSpaceOnUse">
      <feOffset dy="3" input="SourceAlpha"/>
      <feGaussianBlur stdDeviation="3" result="blur-8"/>
      <feFlood flood-opacity="0.4"/>
      <feComposite operator="in" in2="blur-8"/>
      <feComposite in="SourceGraphic"/>
    </filter>
    <filter id="Path_1362" x="767.535" y="1105.304" width="18.788" height="19.313" filterUnits="userSpaceOnUse">
      <feOffset dy="3" input="SourceAlpha"/>
      <feGaussianBlur stdDeviation="3" result="blur-9"/>
      <feFlood flood-opacity="0.4"/>
      <feComposite operator="in" in2="blur-9"/>
      <feComposite in="SourceGraphic"/>
    </filter>
    <filter id="Path_1363" x="769.111" y="1105.304" width="18.788" height="19.313" filterUnits="userSpaceOnUse">
      <feOffset dy="3" input="SourceAlpha"/>
      <feGaussianBlur stdDeviation="3" result="blur-10"/>
      <feFlood flood-opacity="0.4"/>
      <feComposite operator="in" in2="blur-10"/>
      <feComposite in="SourceGraphic"/>
    </filter>
    <filter id="Path_1364" x="770.687" y="1105.304" width="18.788" height="19.313" filterUnits="userSpaceOnUse">
      <feOffset dy="3" input="SourceAlpha"/>
      <feGaussianBlur stdDeviation="3" result="blur-11"/>
      <feFlood flood-opacity="0.4"/>
      <feComposite operator="in" in2="blur-11"/>
      <feComposite in="SourceGraphic"/>
    </filter>
    <filter id="Path_1365" x="767.535" y="1107.931" width="18.788" height="19.313" filterUnits="userSpaceOnUse">
      <feOffset dy="3" input="SourceAlpha"/>
      <feGaussianBlur stdDeviation="3" result="blur-12"/>
      <feFlood flood-opacity="0.4"/>
      <feComposite operator="in" in2="blur-12"/>
      <feComposite in="SourceGraphic"/>
    </filter>
    <filter id="Path_1366" x="769.111" y="1107.931" width="18.788" height="19.313" filterUnits="userSpaceOnUse">
      <feOffset dy="3" input="SourceAlpha"/>
      <feGaussianBlur stdDeviation="3" result="blur-13"/>
      <feFlood flood-opacity="0.4"/>
      <feComposite operator="in" in2="blur-13"/>
      <feComposite in="SourceGraphic"/>
    </filter>
    <filter id="Path_1367" x="770.687" y="1107.931" width="18.788" height="19.313" filterUnits="userSpaceOnUse">
      <feOffset dy="3" input="SourceAlpha"/>
      <feGaussianBlur stdDeviation="3" result="blur-14"/>
      <feFlood flood-opacity="0.4"/>
      <feComposite operator="in" in2="blur-14"/>
      <feComposite in="SourceGraphic"/>
    </filter>
    <filter id="Path_1368" x="756.503" y="1108.981" width="18.788" height="19.313" filterUnits="userSpaceOnUse">
      <feOffset dy="3" input="SourceAlpha"/>
      <feGaussianBlur stdDeviation="3" result="blur-15"/>
      <feFlood flood-opacity="0.4"/>
      <feComposite operator="in" in2="blur-15"/>
      <feComposite in="SourceGraphic"/>
    </filter>
    <filter id="Path_1369" x="758.079" y="1108.981" width="18.788" height="19.313" filterUnits="userSpaceOnUse">
      <feOffset dy="3" input="SourceAlpha"/>
      <feGaussianBlur stdDeviation="3" result="blur-16"/>
      <feFlood flood-opacity="0.4"/>
      <feComposite operator="in" in2="blur-16"/>
      <feComposite in="SourceGraphic"/>
    </filter>
    <filter id="Path_1370" x="759.655" y="1108.981" width="18.788" height="19.313" filterUnits="userSpaceOnUse">
      <feOffset dy="3" input="SourceAlpha"/>
      <feGaussianBlur stdDeviation="3" result="blur-17"/>
      <feFlood flood-opacity="0.4"/>
      <feComposite operator="in" in2="blur-17"/>
      <feComposite in="SourceGraphic"/>
    </filter>
    <filter id="Path_1371" x="756.503" y="1111.608" width="18.788" height="19.313" filterUnits="userSpaceOnUse">
      <feOffset dy="3" input="SourceAlpha"/>
      <feGaussianBlur stdDeviation="3" result="blur-18"/>
      <feFlood flood-opacity="0.4"/>
      <feComposite operator="in" in2="blur-18"/>
      <feComposite in="SourceGraphic"/>
    </filter>
    <filter id="Path_1372" x="758.079" y="1111.608" width="18.788" height="19.313" filterUnits="userSpaceOnUse">
      <feOffset dy="3" input="SourceAlpha"/>
      <feGaussianBlur stdDeviation="3" result="blur-19"/>
      <feFlood flood-opacity="0.4"/>
      <feComposite operator="in" in2="blur-19"/>
      <feComposite in="SourceGraphic"/>
    </filter>
    <filter id="Path_1373" x="759.655" y="1111.608" width="18.788" height="19.313" filterUnits="userSpaceOnUse">
      <feOffset dy="3" input="SourceAlpha"/>
      <feGaussianBlur stdDeviation="3" result="blur-20"/>
      <feFlood flood-opacity="0.4"/>
      <feComposite operator="in" in2="blur-20"/>
      <feComposite in="SourceGraphic"/>
    </filter>
    <filter id="Path_1374" x="756.503" y="1114.235" width="18.788" height="19.313" filterUnits="userSpaceOnUse">
      <feOffset dy="3" input="SourceAlpha"/>
      <feGaussianBlur stdDeviation="3" result="blur-21"/>
      <feFlood flood-opacity="0.4"/>
      <feComposite operator="in" in2="blur-21"/>
      <feComposite in="SourceGraphic"/>
    </filter>
    <filter id="Path_1375" x="758.079" y="1114.235" width="18.788" height="19.313" filterUnits="userSpaceOnUse">
      <feOffset dy="3" input="SourceAlpha"/>
      <feGaussianBlur stdDeviation="3" result="blur-22"/>
      <feFlood flood-opacity="0.4"/>
      <feComposite operator="in" in2="blur-22"/>
      <feComposite in="SourceGraphic"/>
    </filter>
    <filter id="Path_1376" x="759.655" y="1114.235" width="18.788" height="19.313" filterUnits="userSpaceOnUse">
      <feOffset dy="3" input="SourceAlpha"/>
      <feGaussianBlur stdDeviation="3" result="blur-23"/>
      <feFlood flood-opacity="0.4"/>
      <feComposite operator="in" in2="blur-23"/>
      <feComposite in="SourceGraphic"/>
    </filter>
    <filter id="Path_1377" x="756.503" y="1116.861" width="18.788" height="19.313" filterUnits="userSpaceOnUse">
      <feOffset dy="3" input="SourceAlpha"/>
      <feGaussianBlur stdDeviation="3" result="blur-24"/>
      <feFlood flood-opacity="0.4"/>
      <feComposite operator="in" in2="blur-24"/>
      <feComposite in="SourceGraphic"/>
    </filter>
    <filter id="Path_1378" x="758.079" y="1116.861" width="18.788" height="19.313" filterUnits="userSpaceOnUse">
      <feOffset dy="3" input="SourceAlpha"/>
      <feGaussianBlur stdDeviation="3" result="blur-25"/>
      <feFlood flood-opacity="0.4"/>
      <feComposite operator="in" in2="blur-25"/>
      <feComposite in="SourceGraphic"/>
    </filter>
    <filter id="Path_1379" x="759.655" y="1116.861" width="18.788" height="19.313" filterUnits="userSpaceOnUse">
      <feOffset dy="3" input="SourceAlpha"/>
      <feGaussianBlur stdDeviation="3" result="blur-26"/>
      <feFlood flood-opacity="0.4"/>
      <feComposite operator="in" in2="blur-26"/>
      <feComposite in="SourceGraphic"/>
    </filter>
    <filter id="Path_1380" x="770.687" y="1110.557" width="18.788" height="19.313" filterUnits="userSpaceOnUse">
      <feOffset dy="3" input="SourceAlpha"/>
      <feGaussianBlur stdDeviation="3" result="blur-27"/>
      <feFlood flood-opacity="0.4"/>
      <feComposite operator="in" in2="blur-27"/>
      <feComposite in="SourceGraphic"/>
    </filter>
    <filter id="Path_1381" x="770.687" y="1113.184" width="18.788" height="19.313" filterUnits="userSpaceOnUse">
      <feOffset dy="3" input="SourceAlpha"/>
      <feGaussianBlur stdDeviation="3" result="blur-28"/>
      <feFlood flood-opacity="0.4"/>
      <feComposite operator="in" in2="blur-28"/>
      <feComposite in="SourceGraphic"/>
    </filter>
    <filter id="Path_1382" x="770.687" y="1115.811" width="18.788" height="19.313" filterUnits="userSpaceOnUse">
      <feOffset dy="3" input="SourceAlpha"/>
      <feGaussianBlur stdDeviation="3" result="blur-29"/>
      <feFlood flood-opacity="0.4"/>
      <feComposite operator="in" in2="blur-29"/>
      <feComposite in="SourceGraphic"/>
    </filter>
    <filter id="Path_1383" x="770.687" y="1118.437" width="18.788" height="19.313" filterUnits="userSpaceOnUse">
      <feOffset dy="3" input="SourceAlpha"/>
      <feGaussianBlur stdDeviation="3" result="blur-30"/>
      <feFlood flood-opacity="0.4"/>
      <feComposite operator="in" in2="blur-30"/>
      <feComposite in="SourceGraphic"/>
    </filter>
    <filter id="Path_1384" x="760.18" y="1104.779" width="21.94" height="18.788" filterUnits="userSpaceOnUse">
      <feOffset dy="3" input="SourceAlpha"/>
      <feGaussianBlur stdDeviation="3" result="blur-31"/>
      <feFlood flood-opacity="0.4"/>
      <feComposite operator="in" in2="blur-31"/>
      <feComposite in="SourceGraphic"/>
    </filter>
  </defs>
  <g id="Button_Open_Menu" data-name="Button Open Menu" transform="translate(750.107 1096.213)">
    <g class="cls-33" transform="matrix(1, 0, 0, 1, -750.11, -1096.21)">
      <circle id="Ellipse_37-2" data-name="Ellipse 37" class="cls-1" cx="22.5" cy="22.5" r="22.5" transform="translate(750.11 1096.21)"/>
    </g>
    <g id="skyline" transform="translate(-10.767 8.787)">
      <g class="cls-32" transform="matrix(1, 0, 0, 1, -739.34, -1105)">
        <path id="Path_1355-2" data-name="Path 1355" class="cls-2" d="M43.893,22.589h-.657V1.97a.394.394,0,0,0-.394-.394H35.488a.394.394,0,0,0-.394.394V3.677h-.788V1.97a.394.394,0,0,0-.394-.394H32.2V.394a.394.394,0,1,0-.788,0V1.576H29.709a.394.394,0,0,0-.394.394V3.677H28.133a.394.394,0,0,0-.394.394V7.355H24.456a.394.394,0,0,0-.394.394V22.589H23.4a.394.394,0,0,0,0,.788H43.893a.394.394,0,1,0,0-.788ZM30.1,2.364h3.415V3.677H30.1ZM28.79,22.589h-.263v-.657a.394.394,0,1,0-.788,0v.657h-.263V21.276H28.79Zm2.627-10.113V22.589H29.578V20.882a.394.394,0,0,0-.394-.394h-2.1a.394.394,0,0,0-.394.394v1.707H24.85V8.143h6.567Zm.394-5.122H28.527V4.465h6.567v7.617H32.2V10.769h1.182a.394.394,0,0,0,0-.788H32.2V8.668h1.182a.394.394,0,0,0,0-.788H32.2V7.749A.394.394,0,0,0,31.81,7.355Zm6.961,15.235H32.2V12.871h6.567Zm3.677,0H39.559V11.951a.394.394,0,0,0-.788,0v.131h-.788v-.131a.394.394,0,0,0-.788,0v.131H35.882V2.364h6.567V22.589Z" transform="translate(739.34 1105)"/>
      </g>
      <g class="cls-31" transform="matrix(1, 0, 0, 1, -739.34, -1105)">
        <path id="Path_1356-2" data-name="Path 1356" class="cls-2" d="M253.518,307.292a.394.394,0,0,0,.394-.394v-7.355a.394.394,0,0,0-.788,0V306.9A.394.394,0,0,0,253.518,307.292Z" transform="translate(519.73 819.51)"/>
      </g>
      <g class="cls-30" transform="matrix(1, 0, 0, 1, -739.34, -1105)">
        <path id="Path_1357-2" data-name="Path 1357" class="cls-2" d="M288.035,307.292a.394.394,0,0,0,.394-.394v-7.355a.394.394,0,0,0-.788,0V306.9A.394.394,0,0,0,288.035,307.292Z" transform="translate(486.79 819.51)"/>
      </g>
      <g class="cls-29" transform="matrix(1, 0, 0, 1, -739.34, -1105)">
        <path id="Path_1358-2" data-name="Path 1358" class="cls-2" d="M322.551,307.292a.394.394,0,0,0,.394-.394v-7.355a.394.394,0,0,0-.788,0V306.9A.394.394,0,0,0,322.551,307.292Z" transform="translate(453.85 819.51)"/>
      </g>
      <g class="cls-28" transform="matrix(1, 0, 0, 1, -739.34, -1105)">
        <path id="Path_1359-2" data-name="Path 1359" class="cls-2" d="M334.057,81.853a.394.394,0,0,0,.394-.394v-.525a.394.394,0,1,0-.788,0v.525A.394.394,0,0,0,334.057,81.853Z" transform="translate(442.87 1028.14)"/>
      </g>
      <g class="cls-27" transform="matrix(1, 0, 0, 1, -739.34, -1105)">
        <path id="Path_1360-2" data-name="Path 1360" class="cls-2" d="M368.574,81.853a.394.394,0,0,0,.394-.394v-.525a.394.394,0,0,0-.788,0v.525A.394.394,0,0,0,368.574,81.853Z" transform="translate(409.93 1028.14)"/>
      </g>
      <g class="cls-26" transform="matrix(1, 0, 0, 1, -739.34, -1105)">
        <path id="Path_1361-2" data-name="Path 1361" class="cls-2" d="M403.091,81.853a.394.394,0,0,0,.394-.394v-.525a.394.394,0,0,0-.788,0v.525A.394.394,0,0,0,403.091,81.853Z" transform="translate(376.99 1028.14)"/>
      </g>
      <g class="cls-25" transform="matrix(1, 0, 0, 1, -739.34, -1105)">
        <path id="Path_1362-2" data-name="Path 1362" class="cls-2" d="M334.057,139.38a.394.394,0,0,0,.394-.394v-.525a.394.394,0,1,0-.788,0v.525A.394.394,0,0,0,334.057,139.38Z" transform="translate(442.87 973.24)"/>
      </g>
      <g class="cls-24" transform="matrix(1, 0, 0, 1, -739.34, -1105)">
        <path id="Path_1363-2" data-name="Path 1363" class="cls-2" d="M368.574,139.38a.394.394,0,0,0,.394-.394v-.525a.394.394,0,1,0-.788,0v.525A.394.394,0,0,0,368.574,139.38Z" transform="translate(409.93 973.24)"/>
      </g>
      <g class="cls-23" transform="matrix(1, 0, 0, 1, -739.34, -1105)">
        <path id="Path_1364-2" data-name="Path 1364" class="cls-2" d="M403.091,139.38a.394.394,0,0,0,.394-.394v-.525a.394.394,0,1,0-.788,0v.525A.394.394,0,0,0,403.091,139.38Z" transform="translate(376.99 973.24)"/>
      </g>
      <g class="cls-22" transform="matrix(1, 0, 0, 1, -739.34, -1105)">
        <path id="Path_1365-2" data-name="Path 1365" class="cls-2" d="M334.057,196.909a.394.394,0,0,0,.394-.394v-.525a.394.394,0,0,0-.788,0v.525A.394.394,0,0,0,334.057,196.909Z" transform="translate(442.87 918.33)"/>
      </g>
      <g class="cls-21" transform="matrix(1, 0, 0, 1, -739.34, -1105)">
        <path id="Path_1366-2" data-name="Path 1366" class="cls-2" d="M368.574,196.909a.394.394,0,0,0,.394-.394v-.525a.394.394,0,0,0-.788,0v.525A.394.394,0,0,0,368.574,196.909Z" transform="translate(409.93 918.33)"/>
      </g>
      <g class="cls-20" transform="matrix(1, 0, 0, 1, -739.34, -1105)">
        <path id="Path_1367-2" data-name="Path 1367" class="cls-2" d="M403.091,196.909a.394.394,0,0,0,.394-.394v-.525a.394.394,0,0,0-.788,0v.525A.394.394,0,0,0,403.091,196.909Z" transform="translate(376.99 918.33)"/>
      </g>
      <g class="cls-19" transform="matrix(1, 0, 0, 1, -739.34, -1105)">
        <path id="Path_1368-2" data-name="Path 1368" class="cls-2" d="M92.439,219.92a.394.394,0,0,0,.394-.394V219a.394.394,0,0,0-.788,0v.525A.394.394,0,0,0,92.439,219.92Z" transform="translate(673.46 896.37)"/>
      </g>
      <g class="cls-18" transform="matrix(1, 0, 0, 1, -739.34, -1105)">
        <path id="Path_1369-2" data-name="Path 1369" class="cls-2" d="M126.956,219.92a.394.394,0,0,0,.394-.394V219a.394.394,0,0,0-.788,0v.525A.394.394,0,0,0,126.956,219.92Z" transform="translate(640.52 896.37)"/>
      </g>
      <g class="cls-17" transform="matrix(1, 0, 0, 1, -739.34, -1105)">
        <path id="Path_1370-2" data-name="Path 1370" class="cls-2" d="M161.473,219.92a.394.394,0,0,0,.394-.394V219a.394.394,0,0,0-.788,0v.525A.394.394,0,0,0,161.473,219.92Z" transform="translate(607.58 896.37)"/>
      </g>
      <g class="cls-16" transform="matrix(1, 0, 0, 1, -739.34, -1105)">
        <path id="Path_1371-2" data-name="Path 1371" class="cls-2" d="M92.439,277.448a.394.394,0,0,0,.394-.394v-.525a.394.394,0,0,0-.788,0v.525A.394.394,0,0,0,92.439,277.448Z" transform="translate(673.46 841.47)"/>
      </g>
      <g class="cls-15" transform="matrix(1, 0, 0, 1, -739.34, -1105)">
        <path id="Path_1372-2" data-name="Path 1372" class="cls-2" d="M126.956,277.448a.394.394,0,0,0,.394-.394v-.525a.394.394,0,0,0-.788,0v.525A.394.394,0,0,0,126.956,277.448Z" transform="translate(640.52 841.47)"/>
      </g>
      <g class="cls-14" transform="matrix(1, 0, 0, 1, -739.34, -1105)">
        <path id="Path_1373-2" data-name="Path 1373" class="cls-2" d="M161.473,277.448a.394.394,0,0,0,.394-.394v-.525a.394.394,0,0,0-.788,0v.525A.394.394,0,0,0,161.473,277.448Z" transform="translate(607.58 841.47)"/>
      </g>
      <g class="cls-13" transform="matrix(1, 0, 0, 1, -739.34, -1105)">
        <path id="Path_1374-2" data-name="Path 1374" class="cls-2" d="M92.439,334.976a.394.394,0,0,0,.394-.394v-.525a.394.394,0,0,0-.788,0v.525A.394.394,0,0,0,92.439,334.976Z" transform="translate(673.46 786.57)"/>
      </g>
      <g class="cls-12" transform="matrix(1, 0, 0, 1, -739.34, -1105)">
        <path id="Path_1375-2" data-name="Path 1375" class="cls-2" d="M126.956,334.976a.394.394,0,0,0,.394-.394v-.525a.394.394,0,0,0-.788,0v.525A.394.394,0,0,0,126.956,334.976Z" transform="translate(640.52 786.57)"/>
      </g>
      <g class="cls-11" transform="matrix(1, 0, 0, 1, -739.34, -1105)">
        <path id="Path_1376-2" data-name="Path 1376" class="cls-2" d="M161.473,334.976a.394.394,0,0,0,.394-.394v-.525a.394.394,0,1,0-.788,0v.525A.394.394,0,0,0,161.473,334.976Z" transform="translate(607.58 786.57)"/>
      </g>
      <g class="cls-10" transform="matrix(1, 0, 0, 1, -739.34, -1105)">
        <path id="Path_1377-2" data-name="Path 1377" class="cls-2" d="M92.439,392.5a.394.394,0,0,0,.394-.394v-.525a.394.394,0,0,0-.788,0v.525A.394.394,0,0,0,92.439,392.5Z" transform="translate(673.46 731.67)"/>
      </g>
      <g class="cls-9" transform="matrix(1, 0, 0, 1, -739.34, -1105)">
        <path id="Path_1378-2" data-name="Path 1378" class="cls-2" d="M126.956,392.5a.394.394,0,0,0,.394-.394v-.525a.394.394,0,0,0-.788,0v.525A.394.394,0,0,0,126.956,392.5Z" transform="translate(640.52 731.67)"/>
      </g>
      <g class="cls-8" transform="matrix(1, 0, 0, 1, -739.34, -1105)">
        <path id="Path_1379-2" data-name="Path 1379" class="cls-2" d="M161.473,392.5a.394.394,0,0,0,.394-.394v-.525a.394.394,0,1,0-.788,0v.525A.394.394,0,0,0,161.473,392.5Z" transform="translate(607.58 731.67)"/>
      </g>
      <g class="cls-7" transform="matrix(1, 0, 0, 1, -739.34, -1105)">
        <path id="Path_1380-2" data-name="Path 1380" class="cls-2" d="M403.091,254.437a.394.394,0,0,0,.394-.394v-.525a.394.394,0,0,0-.788,0v.525A.394.394,0,0,0,403.091,254.437Z" transform="translate(376.99 863.43)"/>
      </g>
      <g class="cls-6" transform="matrix(1, 0, 0, 1, -739.34, -1105)">
        <path id="Path_1381-2" data-name="Path 1381" class="cls-2" d="M403.091,311.965a.394.394,0,0,0,.394-.394v-.525a.394.394,0,0,0-.788,0v.525A.394.394,0,0,0,403.091,311.965Z" transform="translate(376.99 808.53)"/>
      </g>
      <g class="cls-5" transform="matrix(1, 0, 0, 1, -739.34, -1105)">
        <path id="Path_1382-2" data-name="Path 1382" class="cls-2" d="M403.091,369.493a.394.394,0,0,0,.394-.394v-.525a.394.394,0,0,0-.788,0v.525A.394.394,0,0,0,403.091,369.493Z" transform="translate(376.99 753.63)"/>
      </g>
      <g class="cls-4" transform="matrix(1, 0, 0, 1, -739.34, -1105)">
        <path id="Path_1383-2" data-name="Path 1383" class="cls-2" d="M403.091,427.021a.394.394,0,0,0,.394-.394V426.1a.394.394,0,0,0-.788,0v.525A.394.394,0,0,0,403.091,427.021Z" transform="translate(376.99 698.73)"/>
      </g>
      <g class="cls-3" transform="matrix(1, 0, 0, 1, -739.34, -1105)">
        <path id="Path_1384-2" data-name="Path 1384" class="cls-2" d="M176.524,126.956a.394.394,0,0,0-.394-.394h-3.152a.394.394,0,0,0,0,.788h3.152A.394.394,0,0,0,176.524,126.956Z" transform="translate(596.6 984.22)"/>
      </g>
    </g>
  </g>
</svg>
