<svg xmlns="http://www.w3.org/2000/svg" xmlns:xlink="http://www.w3.org/1999/xlink" width="25" height="25" viewBox="664 2292 25 25">
  <defs>
    <style>
      .cls-1 {
        fill: url(#radial-gradient);
      }

      .cls-2 {
        fill: url(#radial-gradient-2);
      }

      .cls-3 {
        fill: #999;
      }

      .cls-4 {
        fill: url(#linear-gradient);
      }
    </style>
    <radialGradient id="radial-gradient" cx="-68.11" cy="14.601" r="13.765" gradientUnits="userSpaceOnUse">
      <stop offset="0" stop-color="#e6e6e6"/>
      <stop offset="0.03" stop-color="#fff"/>
      <stop offset="1" stop-color="#b3b3b3"/>
    </radialGradient>
    <radialGradient id="radial-gradient-2" cx="11.25" cy="5.875" r="14.626" xlink:href="#radial-gradient"/>
    <linearGradient id="linear-gradient" x1="-0.002" y1="0.498" x2="1.001" y2="0.498" xlink:href="#radial-gradient"/>
  </defs>
  <g id="Group_264" data-name="Group 264" transform="translate(664 2292)">
    <g id="Group_262" data-name="Group 262">
      <circle id="Ellipse_41" data-name="Ellipse 41" class="cls-1" cx="12.5" cy="12.5" r="12.5"/>
      <circle id="Ellipse_42" data-name="Ellipse 42" class="cls-2" cx="11.125" cy="11.125" r="11.125" transform="translate(1.25 1.25)"/>
    </g>
    <path id="Path_1388" data-name="Path 1388" class="cls-3" d="M37.8,22.725a.982.982,0,0,0-.675-.675,1.384,1.384,0,0,0-.45-.05H27a2.755,2.755,0,0,0-.45.05.982.982,0,0,0-.675.675,2.818,2.818,0,0,0-.075.45V25.4a1.416,1.416,0,0,0,.075.45,1.062,1.062,0,0,0,.25.425h0a1.062,1.062,0,0,0,.425.25,1.384,1.384,0,0,0,.45.05h2.175V35.05a2.755,2.755,0,0,0,.05.45,1.062,1.062,0,0,0,.25.425h0a1.062,1.062,0,0,0,.425.25,1.384,1.384,0,0,0,.45.05h2.975a2.755,2.755,0,0,0,.45-.05,1.062,1.062,0,0,0,.425-.25h0a1.062,1.062,0,0,0,.25-.425,1.384,1.384,0,0,0,.05-.45V26.575h2.175a2.754,2.754,0,0,0,.45-.05,1.062,1.062,0,0,0,.425-.25h0a1.062,1.062,0,0,0,.25-.425,2.818,2.818,0,0,0,.075-.45V23.175A2.818,2.818,0,0,0,37.8,22.725Z" transform="translate(-19.35 -16.5)"/>
    <g id="Group_263" data-name="Group 263" transform="translate(7 5.8)">
      <path id="Path_1389" data-name="Path 1389" class="cls-4" d="M34.975,36.375H32a.551.551,0,0,1-.65-.65v-9h-2.7a.551.551,0,0,1-.65-.65V23.85a.551.551,0,0,1,.65-.65h9.675a.551.551,0,0,1,.65.65v2.225a.551.551,0,0,1-.65.65h-2.7v9a.551.551,0,0,1-.65.65Z" transform="translate(-28 -23.2)"/>
    </g>
  </g>
</svg>
