<svg xmlns="http://www.w3.org/2000/svg" xmlns:xlink="http://www.w3.org/1999/xlink" width="56" height="56" viewBox="731.5 349.5 83 83">
  <defs>
    <style>
      .cls-1 {
        stroke: #ffce00;
        stroke-width: 3px;
        fill: url(#radial-gradient);
      }

      .cls-2 {
        opacity: 0.198;
        fill: url(#linear-gradient);
      }

      .cls-3 {
        fill: #ffc400;
      }

      .cls-4 {
        fill: #fff;
      }

      .cls-5 {
        filter: url(#Ellipse_19);
      }
    </style>
    <radialGradient id="radial-gradient" cx="28.269" cy="13.462" r="36.651" gradientUnits="userSpaceOnUse">
      <stop offset="0" stop-color="#ffce00"/>
      <stop offset="1" stop-color="#ff9300"/>
    </radialGradient>
    <filter id="Ellipse_19" x="731.5" y="349.5" width="83" height="83" filterUnits="userSpaceOnUse">
      <feOffset dy="8" input="SourceAlpha"/>
      <feGaussianBlur stdDeviation="4" result="blur"/>
      <feFlood flood-opacity="0.161"/>
      <feComposite operator="in" in2="blur"/>
      <feComposite in="SourceGraphic"/>
    </filter>
    <linearGradient id="linear-gradient" x1="0.481" y1="0.935" x2="0.481" y2="0.003" gradientUnits="objectBoundingBox">
      <stop offset="0" stop-color="#fff"/>
      <stop offset="0.02" stop-color="#f4f9fc" stop-opacity="0.98"/>
      <stop offset="1" stop-color="#ffa700" stop-opacity="0"/>
    </linearGradient>
  </defs>
  <g id="Button_Open_Menu" data-name="Button Open Menu" transform="translate(745 355)">
    <g class="cls-5" transform="matrix(1, 0, 0, 1, -745, -355)">
      <circle id="Ellipse_19-2" data-name="Ellipse 19" class="cls-1" cx="28" cy="28" r="28" transform="translate(745 355)"/>
    </g>
    <path id="Path_536" data-name="Path 536" class="cls-2" d="M53.587,47.315C43.356,57.546,6.418,20.554,16.595,10.323A26.158,26.158,0,0,1,53.587,47.315Z" transform="translate(-6.849 -1.223)"/>
    <path id="Union_15" data-name="Union 15" class="cls-3" d="M12.008,32.9a1.2,1.2,0,0,1-1.185-1.185V23.153a5.933,5.933,0,0,1,.808-.915l3.984-3.985a1.171,1.171,0,0,1,1.615,0l4.039,3.931a11.2,11.2,0,0,1,.807.915v8.615A1.2,1.2,0,0,1,20.892,32.9Zm-3.5-10.823H1.184A1.2,1.2,0,0,1,0,20.892V12.007a1.2,1.2,0,0,1,1.184-1.184H9.692a5.957,5.957,0,0,1,.915.808l3.984,3.985a1.3,1.3,0,0,1,.054,1.669l-3.984,3.985a11.323,11.323,0,0,1-.915.807Zm15.884-.054H23.154a5.95,5.95,0,0,1-.915-.808L18.254,17.23a1.171,1.171,0,0,1,0-1.615l3.931-3.985a11.251,11.251,0,0,1,.915-.808h8.561A1.277,1.277,0,0,1,32.9,11.954v8.885a1.2,1.2,0,0,1-1.185,1.184Zm-8.777-7.431-4.038-3.931a11.275,11.275,0,0,1-.808-.915V1.184A1.2,1.2,0,0,1,11.954,0h8.885a1.2,1.2,0,0,1,1.184,1.184V9.692a5.937,5.937,0,0,1-.807.915L17.23,14.592a1.171,1.171,0,0,1-1.615,0Z" transform="translate(11.039 12.385)"/>
    <g id="Group_138" data-name="Group 138" transform="translate(11.038 11.308)">
      <path id="Path_541" data-name="Path 541" class="cls-4" d="M47.008,54.623a1.171,1.171,0,0,0-1.615,0l-3.985,3.985a5.944,5.944,0,0,0-.808.915v8.562a1.2,1.2,0,0,0,1.185,1.185h8.885a1.2,1.2,0,0,0,1.185-1.185V59.469a11.26,11.26,0,0,0-.808-.915Z" transform="translate(-29.777 -36.369)"/>
      <path id="Path_542" data-name="Path 542" class="cls-4" d="M45.346,35.592a1.171,1.171,0,0,0,1.615,0l3.985-3.985a5.945,5.945,0,0,0,.808-.915V22.185A1.2,1.2,0,0,0,50.569,21H41.685A1.2,1.2,0,0,0,40.5,22.185v8.562a11.257,11.257,0,0,0,.808.915Z" transform="translate(-29.731 -21)"/>
      <path id="Path_543" data-name="Path 543" class="cls-4" d="M35.092,45.892l-3.985-3.985a5.944,5.944,0,0,0-.915-.808H21.685A1.2,1.2,0,0,0,20.5,42.285v8.885a1.2,1.2,0,0,0,1.185,1.185h8.562a11.258,11.258,0,0,0,.915-.808l3.985-3.985A1.3,1.3,0,0,0,35.092,45.892Z" transform="translate(-20.5 -30.277)"/>
      <path id="Path_544" data-name="Path 544" class="cls-4" d="M67.531,41.1H58.969a11.26,11.26,0,0,0-.915.808l-3.931,3.985a1.171,1.171,0,0,0,0,1.615l3.985,3.985a5.944,5.944,0,0,0,.915.808h8.562a1.2,1.2,0,0,0,1.185-1.185V42.231A1.277,1.277,0,0,0,67.531,41.1Z" transform="translate(-35.869 -30.277)"/>
    </g>
  </g>
</svg>
