<svg xmlns="http://www.w3.org/2000/svg" xmlns:xlink="http://www.w3.org/1999/xlink" width="56" height="56" viewBox="914 2408 56 56">
  <defs>
    <style>
      .cls-1 {
        fill: rgba(255,255,255,0.26);
      }

      .cls-2 {
        fill: #fff;
      }

      .cls-3 {
        filter: url(#Path_1684);
      }

      .cls-4 {
        filter: url(#Path_1683);
      }

      .cls-5 {
        filter: url(#Path_1682);
      }

      .cls-6 {
        filter: url(#Path_1681);
      }

      .cls-7 {
        filter: url(#Path_1680);
      }

      .cls-8 {
        filter: url(#Path_1679);
      }

      .cls-9 {
        filter: url(#Path_1678);
      }

      .cls-10 {
        filter: url(#Path_1677);
      }

      .cls-11 {
        filter: url(#Path_1676);
      }

      .cls-12 {
        filter: url(#Path_1675);
      }

      .cls-13 {
        filter: url(#Path_1674);
      }

      .cls-14 {
        filter: url(#Path_1673);
      }

      .cls-15 {
        filter: url(#Path_1672);
      }

      .cls-16 {
        filter: url(#Path_1671);
      }

      .cls-17 {
        filter: url(#Path_1670);
      }

      .cls-18 {
        filter: url(#Path_1669);
      }

      .cls-19 {
        filter: url(#Path_1668);
      }

      .cls-20 {
        filter: url(#Path_1667);
      }

      .cls-21 {
        filter: url(#Path_1666);
      }

      .cls-22 {
        filter: url(#Path_1665);
      }

      .cls-23 {
        filter: url(#Path_1664);
      }

      .cls-24 {
        filter: url(#Path_1663);
      }

      .cls-25 {
        filter: url(#Path_1662);
      }

      .cls-26 {
        filter: url(#Path_1661);
      }

      .cls-27 {
        filter: url(#Path_1660);
      }

      .cls-28 {
        filter: url(#Path_1659);
      }

      .cls-29 {
        filter: url(#Path_1658);
      }

      .cls-30 {
        filter: url(#Path_1657);
      }

      .cls-31 {
        filter: url(#Path_1656);
      }

      .cls-32 {
        filter: url(#Path_1655);
      }
    </style>
    <filter id="Path_1655" x="922.351" y="2417" width="39.276" height="41.377" filterUnits="userSpaceOnUse">
      <feOffset dy="3" input="SourceAlpha"/>
      <feGaussianBlur stdDeviation="3" result="blur"/>
      <feFlood flood-opacity="0.4"/>
      <feComposite operator="in" in2="blur"/>
      <feComposite in="SourceGraphic"/>
    </filter>
    <filter id="Path_1656" x="932.857" y="2430.659" width="18.788" height="26.143" filterUnits="userSpaceOnUse">
      <feOffset dy="3" input="SourceAlpha"/>
      <feGaussianBlur stdDeviation="3" result="blur-2"/>
      <feFlood flood-opacity="0.4"/>
      <feComposite operator="in" in2="blur-2"/>
      <feComposite in="SourceGraphic"/>
    </filter>
    <filter id="Path_1657" x="934.434" y="2430.659" width="18.788" height="26.143" filterUnits="userSpaceOnUse">
      <feOffset dy="3" input="SourceAlpha"/>
      <feGaussianBlur stdDeviation="3" result="blur-3"/>
      <feFlood flood-opacity="0.4"/>
      <feComposite operator="in" in2="blur-3"/>
      <feComposite in="SourceGraphic"/>
    </filter>
    <filter id="Path_1658" x="936.01" y="2430.659" width="18.788" height="26.143" filterUnits="userSpaceOnUse">
      <feOffset dy="3" input="SourceAlpha"/>
      <feGaussianBlur stdDeviation="3" result="blur-4"/>
      <feFlood flood-opacity="0.4"/>
      <feComposite operator="in" in2="blur-4"/>
      <feComposite in="SourceGraphic"/>
    </filter>
    <filter id="Path_1659" x="936.535" y="2420.677" width="18.788" height="19.313" filterUnits="userSpaceOnUse">
      <feOffset dy="3" input="SourceAlpha"/>
      <feGaussianBlur stdDeviation="3" result="blur-5"/>
      <feFlood flood-opacity="0.4"/>
      <feComposite operator="in" in2="blur-5"/>
      <feComposite in="SourceGraphic"/>
    </filter>
    <filter id="Path_1660" x="938.111" y="2420.677" width="18.788" height="19.313" filterUnits="userSpaceOnUse">
      <feOffset dy="3" input="SourceAlpha"/>
      <feGaussianBlur stdDeviation="3" result="blur-6"/>
      <feFlood flood-opacity="0.4"/>
      <feComposite operator="in" in2="blur-6"/>
      <feComposite in="SourceGraphic"/>
    </filter>
    <filter id="Path_1661" x="939.687" y="2420.677" width="18.788" height="19.313" filterUnits="userSpaceOnUse">
      <feOffset dy="3" input="SourceAlpha"/>
      <feGaussianBlur stdDeviation="3" result="blur-7"/>
      <feFlood flood-opacity="0.4"/>
      <feComposite operator="in" in2="blur-7"/>
      <feComposite in="SourceGraphic"/>
    </filter>
    <filter id="Path_1662" x="936.535" y="2423.304" width="18.788" height="19.313" filterUnits="userSpaceOnUse">
      <feOffset dy="3" input="SourceAlpha"/>
      <feGaussianBlur stdDeviation="3" result="blur-8"/>
      <feFlood flood-opacity="0.4"/>
      <feComposite operator="in" in2="blur-8"/>
      <feComposite in="SourceGraphic"/>
    </filter>
    <filter id="Path_1663" x="938.111" y="2423.304" width="18.788" height="19.313" filterUnits="userSpaceOnUse">
      <feOffset dy="3" input="SourceAlpha"/>
      <feGaussianBlur stdDeviation="3" result="blur-9"/>
      <feFlood flood-opacity="0.4"/>
      <feComposite operator="in" in2="blur-9"/>
      <feComposite in="SourceGraphic"/>
    </filter>
    <filter id="Path_1664" x="939.687" y="2423.304" width="18.788" height="19.313" filterUnits="userSpaceOnUse">
      <feOffset dy="3" input="SourceAlpha"/>
      <feGaussianBlur stdDeviation="3" result="blur-10"/>
      <feFlood flood-opacity="0.4"/>
      <feComposite operator="in" in2="blur-10"/>
      <feComposite in="SourceGraphic"/>
    </filter>
    <filter id="Path_1665" x="936.535" y="2425.931" width="18.788" height="19.313" filterUnits="userSpaceOnUse">
      <feOffset dy="3" input="SourceAlpha"/>
      <feGaussianBlur stdDeviation="3" result="blur-11"/>
      <feFlood flood-opacity="0.4"/>
      <feComposite operator="in" in2="blur-11"/>
      <feComposite in="SourceGraphic"/>
    </filter>
    <filter id="Path_1666" x="938.111" y="2425.931" width="18.788" height="19.313" filterUnits="userSpaceOnUse">
      <feOffset dy="3" input="SourceAlpha"/>
      <feGaussianBlur stdDeviation="3" result="blur-12"/>
      <feFlood flood-opacity="0.4"/>
      <feComposite operator="in" in2="blur-12"/>
      <feComposite in="SourceGraphic"/>
    </filter>
    <filter id="Path_1667" x="939.687" y="2425.931" width="18.788" height="19.313" filterUnits="userSpaceOnUse">
      <feOffset dy="3" input="SourceAlpha"/>
      <feGaussianBlur stdDeviation="3" result="blur-13"/>
      <feFlood flood-opacity="0.4"/>
      <feComposite operator="in" in2="blur-13"/>
      <feComposite in="SourceGraphic"/>
    </filter>
    <filter id="Path_1668" x="925.503" y="2426.981" width="18.788" height="19.313" filterUnits="userSpaceOnUse">
      <feOffset dy="3" input="SourceAlpha"/>
      <feGaussianBlur stdDeviation="3" result="blur-14"/>
      <feFlood flood-opacity="0.4"/>
      <feComposite operator="in" in2="blur-14"/>
      <feComposite in="SourceGraphic"/>
    </filter>
    <filter id="Path_1669" x="927.079" y="2426.981" width="18.788" height="19.313" filterUnits="userSpaceOnUse">
      <feOffset dy="3" input="SourceAlpha"/>
      <feGaussianBlur stdDeviation="3" result="blur-15"/>
      <feFlood flood-opacity="0.4"/>
      <feComposite operator="in" in2="blur-15"/>
      <feComposite in="SourceGraphic"/>
    </filter>
    <filter id="Path_1670" x="928.655" y="2426.981" width="18.788" height="19.313" filterUnits="userSpaceOnUse">
      <feOffset dy="3" input="SourceAlpha"/>
      <feGaussianBlur stdDeviation="3" result="blur-16"/>
      <feFlood flood-opacity="0.4"/>
      <feComposite operator="in" in2="blur-16"/>
      <feComposite in="SourceGraphic"/>
    </filter>
    <filter id="Path_1671" x="925.503" y="2429.608" width="18.788" height="19.313" filterUnits="userSpaceOnUse">
      <feOffset dy="3" input="SourceAlpha"/>
      <feGaussianBlur stdDeviation="3" result="blur-17"/>
      <feFlood flood-opacity="0.4"/>
      <feComposite operator="in" in2="blur-17"/>
      <feComposite in="SourceGraphic"/>
    </filter>
    <filter id="Path_1672" x="927.079" y="2429.608" width="18.788" height="19.313" filterUnits="userSpaceOnUse">
      <feOffset dy="3" input="SourceAlpha"/>
      <feGaussianBlur stdDeviation="3" result="blur-18"/>
      <feFlood flood-opacity="0.4"/>
      <feComposite operator="in" in2="blur-18"/>
      <feComposite in="SourceGraphic"/>
    </filter>
    <filter id="Path_1673" x="928.655" y="2429.608" width="18.788" height="19.313" filterUnits="userSpaceOnUse">
      <feOffset dy="3" input="SourceAlpha"/>
      <feGaussianBlur stdDeviation="3" result="blur-19"/>
      <feFlood flood-opacity="0.4"/>
      <feComposite operator="in" in2="blur-19"/>
      <feComposite in="SourceGraphic"/>
    </filter>
    <filter id="Path_1674" x="925.503" y="2432.235" width="18.788" height="19.313" filterUnits="userSpaceOnUse">
      <feOffset dy="3" input="SourceAlpha"/>
      <feGaussianBlur stdDeviation="3" result="blur-20"/>
      <feFlood flood-opacity="0.4"/>
      <feComposite operator="in" in2="blur-20"/>
      <feComposite in="SourceGraphic"/>
    </filter>
    <filter id="Path_1675" x="927.079" y="2432.235" width="18.788" height="19.313" filterUnits="userSpaceOnUse">
      <feOffset dy="3" input="SourceAlpha"/>
      <feGaussianBlur stdDeviation="3" result="blur-21"/>
      <feFlood flood-opacity="0.4"/>
      <feComposite operator="in" in2="blur-21"/>
      <feComposite in="SourceGraphic"/>
    </filter>
    <filter id="Path_1676" x="928.655" y="2432.235" width="18.788" height="19.313" filterUnits="userSpaceOnUse">
      <feOffset dy="3" input="SourceAlpha"/>
      <feGaussianBlur stdDeviation="3" result="blur-22"/>
      <feFlood flood-opacity="0.4"/>
      <feComposite operator="in" in2="blur-22"/>
      <feComposite in="SourceGraphic"/>
    </filter>
    <filter id="Path_1677" x="925.503" y="2434.861" width="18.788" height="19.313" filterUnits="userSpaceOnUse">
      <feOffset dy="3" input="SourceAlpha"/>
      <feGaussianBlur stdDeviation="3" result="blur-23"/>
      <feFlood flood-opacity="0.4"/>
      <feComposite operator="in" in2="blur-23"/>
      <feComposite in="SourceGraphic"/>
    </filter>
    <filter id="Path_1678" x="927.079" y="2434.861" width="18.788" height="19.313" filterUnits="userSpaceOnUse">
      <feOffset dy="3" input="SourceAlpha"/>
      <feGaussianBlur stdDeviation="3" result="blur-24"/>
      <feFlood flood-opacity="0.4"/>
      <feComposite operator="in" in2="blur-24"/>
      <feComposite in="SourceGraphic"/>
    </filter>
    <filter id="Path_1679" x="928.655" y="2434.861" width="18.788" height="19.313" filterUnits="userSpaceOnUse">
      <feOffset dy="3" input="SourceAlpha"/>
      <feGaussianBlur stdDeviation="3" result="blur-25"/>
      <feFlood flood-opacity="0.4"/>
      <feComposite operator="in" in2="blur-25"/>
      <feComposite in="SourceGraphic"/>
    </filter>
    <filter id="Path_1680" x="939.687" y="2428.557" width="18.788" height="19.313" filterUnits="userSpaceOnUse">
      <feOffset dy="3" input="SourceAlpha"/>
      <feGaussianBlur stdDeviation="3" result="blur-26"/>
      <feFlood flood-opacity="0.4"/>
      <feComposite operator="in" in2="blur-26"/>
      <feComposite in="SourceGraphic"/>
    </filter>
    <filter id="Path_1681" x="939.687" y="2431.184" width="18.788" height="19.313" filterUnits="userSpaceOnUse">
      <feOffset dy="3" input="SourceAlpha"/>
      <feGaussianBlur stdDeviation="3" result="blur-27"/>
      <feFlood flood-opacity="0.4"/>
      <feComposite operator="in" in2="blur-27"/>
      <feComposite in="SourceGraphic"/>
    </filter>
    <filter id="Path_1682" x="939.687" y="2433.811" width="18.788" height="19.313" filterUnits="userSpaceOnUse">
      <feOffset dy="3" input="SourceAlpha"/>
      <feGaussianBlur stdDeviation="3" result="blur-28"/>
      <feFlood flood-opacity="0.4"/>
      <feComposite operator="in" in2="blur-28"/>
      <feComposite in="SourceGraphic"/>
    </filter>
    <filter id="Path_1683" x="939.687" y="2436.438" width="18.788" height="19.313" filterUnits="userSpaceOnUse">
      <feOffset dy="3" input="SourceAlpha"/>
      <feGaussianBlur stdDeviation="3" result="blur-29"/>
      <feFlood flood-opacity="0.4"/>
      <feComposite operator="in" in2="blur-29"/>
      <feComposite in="SourceGraphic"/>
    </filter>
    <filter id="Path_1684" x="929.18" y="2422.779" width="21.94" height="18.788" filterUnits="userSpaceOnUse">
      <feOffset dy="3" input="SourceAlpha"/>
      <feGaussianBlur stdDeviation="3" result="blur-30"/>
      <feFlood flood-opacity="0.4"/>
      <feComposite operator="in" in2="blur-30"/>
      <feComposite in="SourceGraphic"/>
    </filter>
  </defs>
  <g id="Group_379" data-name="Group 379" transform="translate(891 2195)">
    <path id="contact_photo" data-name="contact photo" class="cls-1" d="M28,0A28,28,0,1,1,0,28,28,28,0,0,1,28,0Z" transform="translate(23 213)"/>
    <g id="skyline" transform="translate(17.34 228)">
      <g class="cls-32" transform="matrix(1, 0, 0, 1, -908.34, -2423)">
        <path id="Path_1655-2" data-name="Path 1655" class="cls-2" d="M43.893,22.589h-.657V1.97a.394.394,0,0,0-.394-.394H35.488a.394.394,0,0,0-.394.394V3.677h-.788V1.97a.394.394,0,0,0-.394-.394H32.2V.394a.394.394,0,1,0-.788,0V1.576H29.709a.394.394,0,0,0-.394.394V3.677H28.133a.394.394,0,0,0-.394.394V7.355H24.456a.394.394,0,0,0-.394.394V22.589H23.4a.394.394,0,0,0,0,.788H43.893a.394.394,0,1,0,0-.788ZM30.1,2.364h3.415V3.677H30.1ZM28.79,22.589h-.263v-.657a.394.394,0,1,0-.788,0v.657h-.263V21.276H28.79Zm2.627-10.113V22.589H29.578V20.882a.394.394,0,0,0-.394-.394h-2.1a.394.394,0,0,0-.394.394v1.707H24.85V8.143h6.567Zm.394-5.122H28.527V4.465h6.567v7.617H32.2V10.769h1.182a.394.394,0,0,0,0-.788H32.2V8.668h1.182a.394.394,0,0,0,0-.788H32.2V7.749A.394.394,0,0,0,31.81,7.355Zm6.961,15.235H32.2V12.871h6.567Zm3.677,0H39.559V11.951a.394.394,0,0,0-.788,0v.131h-.788v-.131a.394.394,0,0,0-.788,0v.131H35.882V2.364h6.567V22.589Z" transform="translate(908.34 2423)"/>
      </g>
      <g class="cls-31" transform="matrix(1, 0, 0, 1, -908.34, -2423)">
        <path id="Path_1656-2" data-name="Path 1656" class="cls-2" d="M253.518,307.292a.394.394,0,0,0,.394-.394v-7.355a.394.394,0,0,0-.788,0V306.9A.394.394,0,0,0,253.518,307.292Z" transform="translate(688.73 2137.51)"/>
      </g>
      <g class="cls-30" transform="matrix(1, 0, 0, 1, -908.34, -2423)">
        <path id="Path_1657-2" data-name="Path 1657" class="cls-2" d="M288.035,307.292a.394.394,0,0,0,.394-.394v-7.355a.394.394,0,0,0-.788,0V306.9A.394.394,0,0,0,288.035,307.292Z" transform="translate(655.79 2137.51)"/>
      </g>
      <g class="cls-29" transform="matrix(1, 0, 0, 1, -908.34, -2423)">
        <path id="Path_1658-2" data-name="Path 1658" class="cls-2" d="M322.551,307.292a.394.394,0,0,0,.394-.394v-7.355a.394.394,0,0,0-.788,0V306.9A.394.394,0,0,0,322.551,307.292Z" transform="translate(622.85 2137.51)"/>
      </g>
      <g class="cls-28" transform="matrix(1, 0, 0, 1, -908.34, -2423)">
        <path id="Path_1659-2" data-name="Path 1659" class="cls-2" d="M334.057,81.853a.394.394,0,0,0,.394-.394v-.525a.394.394,0,1,0-.788,0v.525A.394.394,0,0,0,334.057,81.853Z" transform="translate(611.87 2346.14)"/>
      </g>
      <g class="cls-27" transform="matrix(1, 0, 0, 1, -908.34, -2423)">
        <path id="Path_1660-2" data-name="Path 1660" class="cls-2" d="M368.574,81.853a.394.394,0,0,0,.394-.394v-.525a.394.394,0,0,0-.788,0v.525A.394.394,0,0,0,368.574,81.853Z" transform="translate(578.93 2346.14)"/>
      </g>
      <g class="cls-26" transform="matrix(1, 0, 0, 1, -908.34, -2423)">
        <path id="Path_1661-2" data-name="Path 1661" class="cls-2" d="M403.091,81.853a.394.394,0,0,0,.394-.394v-.525a.394.394,0,0,0-.788,0v.525A.394.394,0,0,0,403.091,81.853Z" transform="translate(545.99 2346.14)"/>
      </g>
      <g class="cls-25" transform="matrix(1, 0, 0, 1, -908.34, -2423)">
        <path id="Path_1662-2" data-name="Path 1662" class="cls-2" d="M334.057,139.38a.394.394,0,0,0,.394-.394v-.525a.394.394,0,1,0-.788,0v.525A.394.394,0,0,0,334.057,139.38Z" transform="translate(611.87 2291.24)"/>
      </g>
      <g class="cls-24" transform="matrix(1, 0, 0, 1, -908.34, -2423)">
        <path id="Path_1663-2" data-name="Path 1663" class="cls-2" d="M368.574,139.38a.394.394,0,0,0,.394-.394v-.525a.394.394,0,1,0-.788,0v.525A.394.394,0,0,0,368.574,139.38Z" transform="translate(578.93 2291.24)"/>
      </g>
      <g class="cls-23" transform="matrix(1, 0, 0, 1, -908.34, -2423)">
        <path id="Path_1664-2" data-name="Path 1664" class="cls-2" d="M403.091,139.38a.394.394,0,0,0,.394-.394v-.525a.394.394,0,1,0-.788,0v.525A.394.394,0,0,0,403.091,139.38Z" transform="translate(545.99 2291.24)"/>
      </g>
      <g class="cls-22" transform="matrix(1, 0, 0, 1, -908.34, -2423)">
        <path id="Path_1665-2" data-name="Path 1665" class="cls-2" d="M334.057,196.909a.394.394,0,0,0,.394-.394v-.525a.394.394,0,0,0-.788,0v.525A.394.394,0,0,0,334.057,196.909Z" transform="translate(611.87 2236.33)"/>
      </g>
      <g class="cls-21" transform="matrix(1, 0, 0, 1, -908.34, -2423)">
        <path id="Path_1666-2" data-name="Path 1666" class="cls-2" d="M368.574,196.909a.394.394,0,0,0,.394-.394v-.525a.394.394,0,0,0-.788,0v.525A.394.394,0,0,0,368.574,196.909Z" transform="translate(578.93 2236.33)"/>
      </g>
      <g class="cls-20" transform="matrix(1, 0, 0, 1, -908.34, -2423)">
        <path id="Path_1667-2" data-name="Path 1667" class="cls-2" d="M403.091,196.909a.394.394,0,0,0,.394-.394v-.525a.394.394,0,0,0-.788,0v.525A.394.394,0,0,0,403.091,196.909Z" transform="translate(545.99 2236.33)"/>
      </g>
      <g class="cls-19" transform="matrix(1, 0, 0, 1, -908.34, -2423)">
        <path id="Path_1668-2" data-name="Path 1668" class="cls-2" d="M92.439,219.92a.394.394,0,0,0,.394-.394V219a.394.394,0,0,0-.788,0v.525A.394.394,0,0,0,92.439,219.92Z" transform="translate(842.46 2214.37)"/>
      </g>
      <g class="cls-18" transform="matrix(1, 0, 0, 1, -908.34, -2423)">
        <path id="Path_1669-2" data-name="Path 1669" class="cls-2" d="M126.956,219.92a.394.394,0,0,0,.394-.394V219a.394.394,0,0,0-.788,0v.525A.394.394,0,0,0,126.956,219.92Z" transform="translate(809.52 2214.37)"/>
      </g>
      <g class="cls-17" transform="matrix(1, 0, 0, 1, -908.34, -2423)">
        <path id="Path_1670-2" data-name="Path 1670" class="cls-2" d="M161.473,219.92a.394.394,0,0,0,.394-.394V219a.394.394,0,0,0-.788,0v.525A.394.394,0,0,0,161.473,219.92Z" transform="translate(776.58 2214.37)"/>
      </g>
      <g class="cls-16" transform="matrix(1, 0, 0, 1, -908.34, -2423)">
        <path id="Path_1671-2" data-name="Path 1671" class="cls-2" d="M92.439,277.448a.394.394,0,0,0,.394-.394v-.525a.394.394,0,0,0-.788,0v.525A.394.394,0,0,0,92.439,277.448Z" transform="translate(842.46 2159.47)"/>
      </g>
      <g class="cls-15" transform="matrix(1, 0, 0, 1, -908.34, -2423)">
        <path id="Path_1672-2" data-name="Path 1672" class="cls-2" d="M126.956,277.448a.394.394,0,0,0,.394-.394v-.525a.394.394,0,0,0-.788,0v.525A.394.394,0,0,0,126.956,277.448Z" transform="translate(809.52 2159.47)"/>
      </g>
      <g class="cls-14" transform="matrix(1, 0, 0, 1, -908.34, -2423)">
        <path id="Path_1673-2" data-name="Path 1673" class="cls-2" d="M161.473,277.448a.394.394,0,0,0,.394-.394v-.525a.394.394,0,0,0-.788,0v.525A.394.394,0,0,0,161.473,277.448Z" transform="translate(776.58 2159.47)"/>
      </g>
      <g class="cls-13" transform="matrix(1, 0, 0, 1, -908.34, -2423)">
        <path id="Path_1674-2" data-name="Path 1674" class="cls-2" d="M92.439,334.976a.394.394,0,0,0,.394-.394v-.525a.394.394,0,0,0-.788,0v.525A.394.394,0,0,0,92.439,334.976Z" transform="translate(842.46 2104.57)"/>
      </g>
      <g class="cls-12" transform="matrix(1, 0, 0, 1, -908.34, -2423)">
        <path id="Path_1675-2" data-name="Path 1675" class="cls-2" d="M126.956,334.976a.394.394,0,0,0,.394-.394v-.525a.394.394,0,0,0-.788,0v.525A.394.394,0,0,0,126.956,334.976Z" transform="translate(809.52 2104.57)"/>
      </g>
      <g class="cls-11" transform="matrix(1, 0, 0, 1, -908.34, -2423)">
        <path id="Path_1676-2" data-name="Path 1676" class="cls-2" d="M161.473,334.976a.394.394,0,0,0,.394-.394v-.525a.394.394,0,1,0-.788,0v.525A.394.394,0,0,0,161.473,334.976Z" transform="translate(776.58 2104.57)"/>
      </g>
      <g class="cls-10" transform="matrix(1, 0, 0, 1, -908.34, -2423)">
        <path id="Path_1677-2" data-name="Path 1677" class="cls-2" d="M92.439,392.5a.394.394,0,0,0,.394-.394v-.525a.394.394,0,0,0-.788,0v.525A.394.394,0,0,0,92.439,392.5Z" transform="translate(842.46 2049.67)"/>
      </g>
      <g class="cls-9" transform="matrix(1, 0, 0, 1, -908.34, -2423)">
        <path id="Path_1678-2" data-name="Path 1678" class="cls-2" d="M126.956,392.5a.394.394,0,0,0,.394-.394v-.525a.394.394,0,0,0-.788,0v.525A.394.394,0,0,0,126.956,392.5Z" transform="translate(809.52 2049.67)"/>
      </g>
      <g class="cls-8" transform="matrix(1, 0, 0, 1, -908.34, -2423)">
        <path id="Path_1679-2" data-name="Path 1679" class="cls-2" d="M161.473,392.5a.394.394,0,0,0,.394-.394v-.525a.394.394,0,1,0-.788,0v.525A.394.394,0,0,0,161.473,392.5Z" transform="translate(776.58 2049.67)"/>
      </g>
      <g class="cls-7" transform="matrix(1, 0, 0, 1, -908.34, -2423)">
        <path id="Path_1680-2" data-name="Path 1680" class="cls-2" d="M403.091,254.437a.394.394,0,0,0,.394-.394v-.525a.394.394,0,0,0-.788,0v.525A.394.394,0,0,0,403.091,254.437Z" transform="translate(545.99 2181.43)"/>
      </g>
      <g class="cls-6" transform="matrix(1, 0, 0, 1, -908.34, -2423)">
        <path id="Path_1681-2" data-name="Path 1681" class="cls-2" d="M403.091,311.965a.394.394,0,0,0,.394-.394v-.525a.394.394,0,0,0-.788,0v.525A.394.394,0,0,0,403.091,311.965Z" transform="translate(545.99 2126.53)"/>
      </g>
      <g class="cls-5" transform="matrix(1, 0, 0, 1, -908.34, -2423)">
        <path id="Path_1682-2" data-name="Path 1682" class="cls-2" d="M403.091,369.493a.394.394,0,0,0,.394-.394v-.525a.394.394,0,0,0-.788,0v.525A.394.394,0,0,0,403.091,369.493Z" transform="translate(545.99 2071.63)"/>
      </g>
      <g class="cls-4" transform="matrix(1, 0, 0, 1, -908.34, -2423)">
        <path id="Path_1683-2" data-name="Path 1683" class="cls-2" d="M403.091,427.021a.394.394,0,0,0,.394-.394V426.1a.394.394,0,0,0-.788,0v.525A.394.394,0,0,0,403.091,427.021Z" transform="translate(545.99 2016.73)"/>
      </g>
      <g class="cls-3" transform="matrix(1, 0, 0, 1, -908.34, -2423)">
        <path id="Path_1684-2" data-name="Path 1684" class="cls-2" d="M176.524,126.956a.394.394,0,0,0-.394-.394h-3.152a.394.394,0,0,0,0,.788h3.152A.394.394,0,0,0,176.524,126.956Z" transform="translate(765.6 2302.22)"/>
      </g>
    </g>
  </g>
</svg>
