<svg xmlns="http://www.w3.org/2000/svg" xmlns:xlink="http://www.w3.org/1999/xlink" width="56" height="56" viewBox="1787.5 349.5 83 83">
  <defs>
    <style>
      .cls-1 {
        stroke: #003993;
        stroke-width: 3px;
        fill: url(#radial-gradient);
      }

      .cls-2 {
        fill: #fff;
      }

      .cls-3 {
        filter: url(#Ellipse_67);
      }
    </style>
    <radialGradient id="radial-gradient" cx="28.269" cy="13.462" r="36.651" gradientUnits="userSpaceOnUse">
      <stop offset="0" stop-color="#0093ff"/>
      <stop offset="1" stop-color="#003fb7"/>
    </radialGradient>
    <filter id="Ellipse_67" x="1787.5" y="349.5" width="83" height="83" filterUnits="userSpaceOnUse">
      <feOffset dy="8" input="SourceAlpha"/>
      <feGaussianBlur stdDeviation="4" result="blur"/>
      <feFlood flood-opacity="0.161"/>
      <feComposite operator="in" in2="blur"/>
      <feComposite in="SourceGraphic"/>
    </filter>
  </defs>
  <g id="Button_Open_Menu" data-name="Button Open Menu" transform="translate(1801 355)">
    <g class="cls-3" transform="matrix(1, 0, 0, 1, -1801, -355)">
      <circle id="Ellipse_67-2" data-name="Ellipse 67" class="cls-1" cx="28" cy="28" r="28" transform="translate(1801 355)"/>
    </g>
    <g id="Motorbike">
      <path id="Path_2441" data-name="Path 2441" class="cls-2" d="M34.015,118.005a5.96,5.96,0,0,0-1.86.3l-.633-1.393a7.3,7.3,0,0,1,1.826-.239h2.668a.667.667,0,0,0,.667-.667c0-4.974-4.052-9.337-8.67-9.337a.666.666,0,0,0-.624.9l.313.834-1.528-.381a.667.667,0,0,0-.323,1.295l2.42.6.586,1.562c-2.648-.959-6.574-1.81-9.319-.662a4.891,4.891,0,0,0-2.619,2.472l-5.578-.559V112a.667.667,0,0,0-.536-.654l-6.669-1.334a.667.667,0,0,0-.728.952l.99,1.98-3.272,1.09a.668.668,0,0,0-.449.538l-.667,4.669a.667.667,0,0,0,1.2.484,7.631,7.631,0,0,1,6.128-3.057,7.345,7.345,0,0,1,7.062,5.374l-1.315.239a6,6,0,1,0,.255,1.723c0-.138-.011-.273-.021-.409l1.322-.24c.019.214.033.43.033.65a.667.667,0,0,0,.667.667h10a.667.667,0,0,0,.667-.667,7.34,7.34,0,0,1,4.25-6.646l.682,1.5a5.99,5.99,0,1,0,3.072-.856ZM7.337,128.676a4.669,4.669,0,1,1,4.423-6.151l-4.543.826a.667.667,0,0,0,.239,1.313L12,123.838c0,.057.009.112.009.169A4.674,4.674,0,0,1,7.337,128.676ZM24.7,123.341H15.982a8.682,8.682,0,0,0-8.645-8,9.131,9.131,0,0,0-5.714,2.03l.313-2.195,3.611-1.2a.668.668,0,0,0,.386-.931l-.724-1.448,4.8.96v.787a.667.667,0,0,0,.6.664l6.669.667a.667.667,0,0,0,.693-.434,3.586,3.586,0,0,1,2.084-2.182c2.88-1.206,7.6.275,9.685,1.227a.667.667,0,0,0,.9-.841l-1.633-4.354a7.491,7.491,0,0,1,4.873,3.253h-.53a.667.667,0,1,0,0,1.334h1.28a8.233,8.233,0,0,1,.693,2.668H33.348A8.682,8.682,0,0,0,24.7,123.341Zm9.312,5.336a4.665,4.665,0,0,1-2.517-8.594l1.91,4.2a.667.667,0,0,0,1.214-.552l-1.911-4.2a4.667,4.667,0,1,1,1.3,9.149Z" transform="translate(7.989 -90.717)"/>
    </g>
  </g>
</svg>
