<svg xmlns="http://www.w3.org/2000/svg" width="56" height="56" viewBox="469 1801 56 56">
  <defs>
    <style>
      .cls-1 {
        fill: rgba(255,255,255,0.26);
      }

      .cls-2 {
        fill: #fff;
      }
    </style>
  </defs>
  <g id="Group_377" data-name="Group 377" transform="translate(446 1388)">
    <path id="contact_photo" data-name="contact photo" class="cls-1" d="M28,0A28,28,0,1,1,0,28,28,28,0,0,1,28,0Z" transform="translate(23 413)"/>
    <g id="car" transform="translate(30.99 432.262)">
      <path id="Path_843" data-name="Path 843" class="cls-2" d="M26.328,23.276H12.986a.584.584,0,0,1,0-1.167H26.328a.584.584,0,0,1,0,1.167Z" transform="translate(2.075 -6.951)"/>
      <path id="Path_844" data-name="Path 844" class="cls-2" d="M10.722,26.906a3.76,3.76,0,1,1,3.759-3.76A3.763,3.763,0,0,1,10.722,26.906Zm0-6.351a2.592,2.592,0,1,0,2.591,2.592A2.595,2.595,0,0,0,10.722,20.555Z" transform="translate(1.165 -7.406)"/>
      <path id="Path_845" data-name="Path 845" class="cls-2" d="M27.593,26.906a3.76,3.76,0,1,1,3.76-3.76A3.763,3.763,0,0,1,27.593,26.906Zm0-6.351a2.592,2.592,0,1,0,2.592,2.592A2.595,2.595,0,0,0,27.593,20.555Z" transform="translate(3.986 -7.406)"/>
      <path id="Path_846" data-name="Path 846" class="cls-2" d="M26.333,23.276H12.988a.584.584,0,0,1,0-1.167H26.333a.584.584,0,0,1,0,1.167Z" transform="translate(2.075 -6.951)"/>
      <path id="Path_847" data-name="Path 847" class="cls-2" d="M37.556,25.448h-2.8a.584.584,0,1,1,0-1.167h2.8A1.449,1.449,0,0,0,39,23.048l.622-3.984a1.033,1.033,0,0,0-.9-1.184l-7.775-.948a.588.588,0,0,1-.3-.132l-7.028-5.907a2.582,2.582,0,0,0-1.66-.6H10.961a1.577,1.577,0,0,0-1.334.731L6.341,16.162a.572.572,0,0,1-.322.244L2.05,17.6a1.244,1.244,0,0,0-.866,1.379l.556,3.559a2.047,2.047,0,0,0,2.032,1.739H8.708a.584.584,0,0,1,0,1.167H3.769A3.206,3.206,0,0,1,.584,22.719L.028,19.16A2.417,2.417,0,0,1,1.71,16.485L5.473,15.35l3.17-4.961a2.74,2.74,0,0,1,2.317-1.266h11A3.75,3.75,0,0,1,24.366,10l6.895,5.8,7.6.927a2.2,2.2,0,0,1,1.906,2.521l-.622,3.984A2.61,2.61,0,0,1,37.556,25.448Z" transform="translate(0 -9.123)"/>
      <path id="Path_848" data-name="Path 848" class="cls-2" d="M23.162,16.371H9.776a.584.584,0,1,1,0-1.167H23.162a.584.584,0,1,1,0,1.167Z" transform="translate(1.538 -8.106)"/>
    </g>
  </g>
</svg>
