<svg xmlns="http://www.w3.org/2000/svg" xmlns:xlink="http://www.w3.org/1999/xlink" width="45" height="45" viewBox="736.607 1026.939 72 72">
  <defs>
    <style>
      .cls-1 {
        stroke: #ffce00;
        stroke-width: 3px;
        fill: url(#radial-gradient);
      }

      .cls-2 {
        fill: #fff;
      }

      .cls-3 {
        filter: url(#Path_1354);
      }

      .cls-4 {
        filter: url(#Path_1353);
      }

      .cls-5 {
        filter: url(#Path_1352);
      }

      .cls-6 {
        filter: url(#Path_1351);
      }

      .cls-7 {
        filter: url(#Path_1350);
      }

      .cls-8 {
        filter: url(#Ellipse_38);
      }
    </style>
    <radialGradient id="radial-gradient" cx="22.716" cy="10.817" r="29.452" gradientUnits="userSpaceOnUse">
      <stop offset="0" stop-color="#ffce00"/>
      <stop offset="1" stop-color="#ff9300"/>
    </radialGradient>
    <filter id="Ellipse_38" x="736.607" y="1026.939" width="72" height="72" filterUnits="userSpaceOnUse">
      <feOffset dy="8" input="SourceAlpha"/>
      <feGaussianBlur stdDeviation="4" result="blur"/>
      <feFlood flood-opacity="0.161"/>
      <feComposite operator="in" in2="blur"/>
      <feComposite in="SourceGraphic"/>
    </filter>
    <filter id="Path_1350" x="758.009" y="1055.736" width="22.163" height="22.163" filterUnits="userSpaceOnUse">
      <feOffset dy="3" input="SourceAlpha"/>
      <feGaussianBlur stdDeviation="3" result="blur-2"/>
      <feFlood flood-opacity="0.4"/>
      <feComposite operator="in" in2="blur-2"/>
      <feComposite in="SourceGraphic"/>
    </filter>
    <filter id="Path_1351" x="765.31" y="1055.736" width="22.163" height="22.163" filterUnits="userSpaceOnUse">
      <feOffset dy="3" input="SourceAlpha"/>
      <feGaussianBlur stdDeviation="3" result="blur-3"/>
      <feFlood flood-opacity="0.4"/>
      <feComposite operator="in" in2="blur-3"/>
      <feComposite in="SourceGraphic"/>
    </filter>
    <filter id="Path_1352" x="758.995" y="1044.778" width="27.489" height="19.162" filterUnits="userSpaceOnUse">
      <feOffset dy="3" input="SourceAlpha"/>
      <feGaussianBlur stdDeviation="3" result="blur-4"/>
      <feFlood flood-opacity="0.4"/>
      <feComposite operator="in" in2="blur-4"/>
      <feComposite in="SourceGraphic"/>
    </filter>
    <filter id="Path_1353" x="759.449" y="1047.795" width="26.582" height="19.162" filterUnits="userSpaceOnUse">
      <feOffset dy="3" input="SourceAlpha"/>
      <feGaussianBlur stdDeviation="3" result="blur-5"/>
      <feFlood flood-opacity="0.4"/>
      <feComposite operator="in" in2="blur-5"/>
      <feComposite in="SourceGraphic"/>
    </filter>
    <filter id="Path_1354" x="750.167" y="1038" width="41.666" height="34.796" filterUnits="userSpaceOnUse">
      <feOffset dy="3" input="SourceAlpha"/>
      <feGaussianBlur stdDeviation="3" result="blur-6"/>
      <feFlood flood-opacity="0.4"/>
      <feComposite operator="in" in2="blur-6"/>
      <feComposite in="SourceGraphic"/>
    </filter>
  </defs>
  <g id="Button_Open_Menu" data-name="Button Open Menu" transform="translate(750.107 1032.439)">
    <g class="cls-8" transform="matrix(1, 0, 0, 1, -750.11, -1032.44)">
      <circle id="Ellipse_38-2" data-name="Ellipse 38" class="cls-1" cx="22.5" cy="22.5" r="22.5" transform="translate(750.11 1032.44)"/>
    </g>
    <g id="shopping-cart" transform="translate(9.061 -7.553)">
      <g class="cls-7" transform="matrix(1, 0, 0, 1, -759.17, -1024.89)">
        <path id="Path_1350-2" data-name="Path 1350" class="cls-2" d="M171.737,402.828a2.081,2.081,0,1,0,2.081,2.081A2.084,2.084,0,0,0,171.737,402.828Zm0,3a.919.919,0,1,1,.919-.919A.92.92,0,0,1,171.737,405.828Z" transform="translate(597.35 658.91)"/>
      </g>
      <g class="cls-6" transform="matrix(1, 0, 0, 1, -759.17, -1024.89)">
        <path id="Path_1351-2" data-name="Path 1351" class="cls-2" d="M329.682,402.828a2.081,2.081,0,1,0,2.081,2.081A2.084,2.084,0,0,0,329.682,402.828Zm0,3a.919.919,0,1,1,.919-.919A.92.92,0,0,1,329.682,405.828Z" transform="translate(446.71 658.91)"/>
      </g>
      <g class="cls-5" transform="matrix(1, 0, 0, 1, -759.17, -1024.89)">
        <path id="Path_1352-2" data-name="Path 1352" class="cls-2" d="M199.9,165.755h-8.327a.581.581,0,0,0,0,1.162H199.9a.581.581,0,0,0,0-1.162Z" transform="translate(577 885.02)"/>
      </g>
      <g class="cls-4" transform="matrix(1, 0, 0, 1, -759.17, -1024.89)">
        <path id="Path_1353-2" data-name="Path 1353" class="cls-2" d="M208.8,231.035h-7.42a.581.581,0,1,0,0,1.162h7.42a.581.581,0,0,0,0-1.162Z" transform="translate(567.65 822.76)"/>
      </g>
      <g class="cls-3" transform="matrix(1, 0, 0, 1, -759.17, -1024.89)">
        <path id="Path_1354-2" data-name="Path 1354" class="cls-2" d="M23.4,23.3a1.157,1.157,0,0,0-.9-.428H4.4L4.038,21.1a1.164,1.164,0,0,0-.675-.831L.812,19.162a.581.581,0,0,0-.463,1.066L2.9,21.335,5.711,34.983a1.166,1.166,0,0,0,1.138.928H20.77a.581.581,0,0,0,0-1.162H6.85l-.342-1.66h14.37a1.166,1.166,0,0,0,1.138-.928l1.625-7.889A1.158,1.158,0,0,0,23.4,23.3Zm-2.526,8.623H6.268L4.643,24.037H22.5Z" transform="translate(759.17 1024.89)"/>
      </g>
    </g>
  </g>
</svg>
