<svg xmlns="http://www.w3.org/2000/svg" width="56" height="56" viewBox="469 1901 56 56">
  <defs>
    <style>
      .cls-1 {
        fill: rgba(255,255,255,0.26);
      }

      .cls-2 {
        fill: #fff;
      }
    </style>
  </defs>
  <g id="Group_378" data-name="Group 378" transform="translate(446 1388)">
    <path id="contact_photo" data-name="contact photo" class="cls-1" d="M28,0A28,28,0,1,1,0,28,28,28,0,0,1,28,0Z" transform="translate(23 513)"/>
    <g id="helicopter" transform="translate(31.181 432.131)">
      <path id="Path_837" data-name="Path 837" class="cls-2" d="M349.865,204.627a8.88,8.88,0,0,0-2.126-2.456.79.79,0,0,0-.986,1.234,7.307,7.307,0,0,1,1.75,2.021.79.79,0,1,0,1.362-.8Z" transform="translate(-319.099 -96.059)"/>
      <path id="Path_838" data-name="Path 838" class="cls-2" d="M310.022,183.182a8.855,8.855,0,0,0-1.041-.336.79.79,0,1,0-.391,1.53,7.257,7.257,0,0,1,.854.276.79.79,0,1,0,.577-1.47Z" transform="translate(-283.676 -78.397)"/>
      <path id="Path_839" data-name="Path 839" class="cls-2" d="M11.393,109.64l2.8,4.976a4.248,4.248,0,0,0,3.7,2.164h.046l-1.471,1.471a.79.79,0,1,0,1.117,1.117l2.588-2.588h10.4L29.1,118.252a.79.79,0,1,0,1.117,1.117L32.8,116.78h.938a.79.79,0,0,0,.79-.79v-2.757a11.452,11.452,0,0,0-.145-1.811h0a11.344,11.344,0,0,0-11.2-9.53H7.025v-.729a3.464,3.464,0,0,0-3.46-3.46H.79a.79.79,0,0,0-.79.79v6.074a.789.789,0,0,0,.616.77l7.169,1.615A5.543,5.543,0,0,1,11.393,109.64ZM23.5,103.476a9.708,9.708,0,0,1,9.135,7.282H23.5Zm-21.921.459V99.283H3.565a1.883,1.883,0,0,1,1.881,1.881v1.518a.79.79,0,0,0,.79.79H21.921v8.076a.79.79,0,0,0,.79.79h10.2c.027.3.041.6.041.9V115.2H17.889a2.667,2.667,0,0,1-2.322-1.359l-2.8-4.976a7.126,7.126,0,0,0-4.638-3.454Z"/>
      <path id="Path_840" data-name="Path 840" class="cls-2" d="M135.394,352.2a.79.79,0,0,0-1.117,0l-.365.365a6.636,6.636,0,0,1-4.723,1.956H105.006a.79.79,0,1,0,0,1.579H129.19a8.2,8.2,0,0,0,5.84-2.419l.365-.365A.79.79,0,0,0,135.394,352.2Z" transform="translate(-95.987 -234.189)"/>
      <path id="Path_841" data-name="Path 841" class="cls-2" d="M125.79,99.578h11.292v.869a.79.79,0,1,0,1.579,0v-.869h7.186a.79.79,0,0,0,0-1.579H125.79a.79.79,0,0,0,0,1.579Z" transform="translate(-115.13 -0.272)"/>
      <path id="Path_842" data-name="Path 842" class="cls-2" d="M410.79,99.578h1.5a.79.79,0,0,0,0-1.579h-1.5a.79.79,0,0,0,0,1.579Z" transform="translate(-377.626 -0.272)"/>
    </g>
  </g>
</svg>
