<svg xmlns="http://www.w3.org/2000/svg" width="56" height="56" viewBox="914 2508 56 56">
  <defs>
    <style>
      .cls-1 {
        fill: rgba(255,255,255,0.26);
      }

      .cls-2 {
        fill: none;
        stroke: #fff;
      }
    </style>
  </defs>
  <g id="Group_380" data-name="Group 380" transform="translate(891 2195)">
    <path id="contact_photo" data-name="contact photo" class="cls-1" d="M28,0A28,28,0,1,1,0,28,28,28,0,0,1,28,0Z" transform="translate(23 313)"/>
    <g id="Group_312" data-name="Group 312" transform="translate(21.134 296.681)">
      <line id="Line_69" data-name="Line 69" class="cls-2" x2="27.275" transform="translate(15.983 52.819)"/>
      <line id="Line_70" data-name="Line 70" class="cls-2" x2="21.462" transform="translate(19.113 56.464)"/>
    </g>
  </g>
</svg>
