<svg xmlns="http://www.w3.org/2000/svg" viewBox="1353.848 244.214 24.439 43.127">
  <defs>
    <style>
      .cls-1 {
        opacity: 0.497;
      }

      .cls-2 {
        fill: #fff;
      }
    </style>
  </defs>
  <g id="flash" class="cls-1" transform="translate(1242.914 244.214)">
    <path id="Path_503" data-name="Path 503" class="cls-2" d="M135.3,14.791a.719.719,0,0,0-.651-.415h-8.518L134.542,1.1a.719.719,0,0,0-.607-1.1h-11.5a.719.719,0,0,0-.643.4L111.009,21.961a.719.719,0,0,0,.643,1.04h7.391L110.99,42.13a.719.719,0,0,0,1.213.743l23-27.314A.72.72,0,0,0,135.3,14.791Z" transform="translate(0)"/>
  </g>
</svg>
